{
    "swagger": "2.0",
    "info": {
        "contact": {}
    },
    "basePath": "isaving/v1/ssv9000001",
    "paths": {
        "/ssv9000001/create": {
            "post": {
                "tags": [
                    "ssv9000001"
                ],
                "description": "ssv9000001 controller",
                "operationId": "Ssv9000001Controller.Ssv9000001 Controller",
                "parameters": [
                    {
                        "in": "body",
                        "name": "Ssv9000001",
                        "description": "true",
                        "schema": {
                            "$ref": "#/definitions/models.SSV9000001I"
                        }
                    }
                ],
                "responses": {
                    "200": {
                        "description": "",
                        "schema": {
                            "$ref": "#/definitions/models.SSV9000001O"
                        }
                    }
                }
            }
        },
        "/ssv9000001/ssv9000001": {
            "post": {
                "tags": [
                    "ssv9000001"
                ],
                "description": "Entry",
                "parameters": [
                    {
                        "in": "body",
                        "name": "ac020001",
                        "description": "body for model content",
                        "required": true,
                        "schema": {
                            "$ref": "#/definitions/models.SSV9000001I"
                        }
                    }
                ],
                "responses": {
                    "200": {
                        "description": "",
                        "schema": {
                            "$ref": "#/definitions/models.SSV9000001O"
                        }
                    }
                }
            }
        }
    },
    "definitions": {
        "models.SSV9000001I": {
            "title": "SSV9000001I",
            "type": "object",
            "properties": {
                "AccCnclFlg": {
                    "type": "string"
                },
                "AccFlag": {
                    "type": "string"
                },
                "AccOpnDt": {
                    "type": "string"
                },
                "AccOpnEm": {
                    "type": "string"
                },
                "AccPsw": {
                    "type": "string"
                },
                "Account": {
                    "type": "string"
                },
                "AccuntNme": {
                    "type": "string"
                },
                "AdvnWithdTm": {
                    "type": "integer",
                    "format": "int64"
                },
                "AgreementType": {
                    "type": "string"
                },
                "AllwDpsit": {
                    "type": "integer",
                    "format": "int64"
                },
                "AppntDt": {
                    "type": "string"
                },
                "AppntDtFlg": {
                    "type": "string"
                },
                "AprvWithDt": {
                    "type": "string"
                },
                "AutCnl": {
                    "type": "string"
                },
                "BegnTxDt": {
                    "type": "string"
                },
                "BnACC": {
                    "type": "string"
                },
                "BnCrtAcc": {
                    "type": "string"
                },
                "CUR": {
                    "type": "string"
                },
                "CashTranFlag": {
                    "type": "string"
                },
                "CstmrCntctAdd": {
                    "type": "string"
                },
                "CstmrCntctEm": {
                    "type": "string"
                },
                "CstmrCntctPh": {
                    "type": "string"
                },
                "CstmrID": {
                    "type": "string"
                },
                "CstmrTyp": {
                    "type": "string"
                },
                "DepCreFlag": {
                    "type": "string"
                },
                "DpTerm": {
                    "type": "integer",
                    "format": "int64"
                },
                "DpTermUn": {
                    "type": "string"
                },
                "DuePrcesFlag": {
                    "type": "string"
                },
                "DytoCncl": {
                    "type": "string"
                },
                "GrcWithDy": {
                    "type": "integer",
                    "format": "int64"
                },
                "HolidayFlag": {
                    "type": "string"
                },
                "LwKepAmt": {
                    "type": "number",
                    "format": "double"
                },
                "LwWithAmt": {
                    "type": "number",
                    "format": "double"
                },
                "MatryWithdTm": {
                    "type": "integer",
                    "format": "int64"
                },
                "MinRenAmt": {
                    "type": "number",
                    "format": "double"
                },
                "OpnAmt": {
                    "type": "number",
                    "format": "double"
                },
                "OvrDrwFlg": {
                    "type": "string"
                },
                "PeriodFlag": {
                    "type": "string"
                },
                "PrductID": {
                    "type": "string"
                },
                "PrductNM": {
                    "type": "string"
                },
                "PrncplPrcesFlag": {
                    "type": "string"
                },
                "PrncplRenFlag": {
                    "type": "string"
                },
                "RenNm": {
                    "type": "string"
                },
                "RequrstID": {
                    "type": "string"
                },
                "SttmntFlg": {
                    "type": "string"
                },
                "TermFlag": {
                    "type": "string"
                },
                "TexRenFlag": {
                    "type": "string"
                },
                "TrnWdrwMthd": {
                    "type": "string"
                },
                "UsgCod": {
                    "type": "string"
                },
                "VerDueWithdTm": {
                    "type": "integer",
                    "format": "int64"
                },
                "WdrwlMthd": {
                    "type": "string"
                },
                "WthdrwlMthd": {
                    "type": "string"
                }
            }
        },
        "models.SSV9000001O": {
            "title": "SSV9000001O",
            "type": "object",
            "properties": {
                "AgreementID": {
                    "type": "string"
                }
            }
        }
    }
}